{
    "id": "D3CA068360F84BF687A08B3111C84B23",
    "user": {
        "id": "51D3E0D0A443403C8E854D9D962675A5",
        "display": "Tom Lei",
        "srcAvatar36px": "https:\/\/secure.gravatar.com\/avatar\/41352c3707a4661b14884dd9f5c6e618?s=36&d=mm&r=g"
    },
    "lockedBy": {
        "id": "51D3E0D0A443403C8E854D9D962675A5",
        "display": "Tom Lei",
        "srcAvatar36px": "https:\/\/secure.gravatar.com\/avatar\/41352c3707a4661b14884dd9f5c6e618?s=36&d=mm&r=g"
    },
    "viewed": true,
    "ignored": false,
    "processmethod": "ManualCapture",
    "importmethod": "Upload",
    "created": "2017-07-28T20:35:04+00:00",
    "updated": "2017-07-28T20:35:13+00:00",
    "pages": [
        {
            "id": "99CF86BB8FE5478E9E594D1AF5955BD3",
            "src": "\/files\/3BB34F5DCBA88A72FBD8C7C6C16E94C0?rouid=536E3158E88B43FC962276748C9C980D",
            "rotation": 0,
            "filename": "multi-receipt-test.pdf",
            "generated": false,
            "originalfilemd5": "42f5be85c3ee194a49e55df0ad9e2aac",
            "created": "2017-07-28T20:35:04+00:00",
            "updated": "2017-07-28T20:35:04+00:00",
            "backup": false
        },
        {
            "id": "F9F2CD5C9DB642E98DCB395D16610AC9",
            "src": "\/files\/A1DF25D7889D26E154C445A1D6E78725?rouid=536E3158E88B43FC962276748C9C980D",
            "rotation": 0,
            "filename": "multi-receipt-test.pdf",
            "generated": false,
            "originalfilemd5": "42f5be85c3ee194a49e55df0ad9e2aac",
            "created": "2017-07-28T20:35:04+00:00",
            "updated": "2017-07-28T20:35:04+00:00",
            "backup": false
        },
        {
            "id": "21D6076960E64D4194A8B94FB3656ADE",
            "src": "\/files\/DED3A295E32EC8ABCE1A43DB64DBAB33?rouid=536E3158E88B43FC962276748C9C980D",
            "rotation": 0,
            "filename": "multi-receipt-test.pdf",
            "generated": false,
            "originalfilemd5": "42f5be85c3ee194a49e55df0ad9e2aac",
            "created": "2017-07-28T20:35:04+00:00",
            "updated": "2017-07-28T20:35:04+00:00",
            "backup": false
        },
        {
            "id": "47A0CCE58B4047E2ACA19201EAFF79BC",
            "src": "\/files\/469ABACEE767E7956925AEC025C8C749?rouid=536E3158E88B43FC962276748C9C980D",
            "rotation": 0,
            "filename": "multi-receipt-test.pdf",
            "generated": false,
            "originalfilemd5": "42f5be85c3ee194a49e55df0ad9e2aac",
            "created": "2017-07-28T20:35:04+00:00",
            "updated": "2017-07-28T20:35:04+00:00",
            "backup": false
        }
    ]
}