{
    "id": "666F6C1F6C2C490CB2D424C006B6E62D",
    "description": "Desc 1",
    "total": 4900,
    "created": "2017-04-24T19:59:26+00:00",
    "updated": "2017-07-28T21:32:41+00:00",
    "type": "LineItem",
    "lists": {
        "1A60647A9A75497DA9A3E12BE4778166": {
            "id": "04D88FE6E0F945D888BB5075C708437E",
            "type": "Group",
            "listId": "1A60647A9A75497DA9A3E12BE4778166",
            "listName": "Group",
            "active": true,
            "display": "O: Other",
            "structure": {
                "id": "O",
                "name": "Other"
            },
            "created": "2016-10-07T23:04:35+00:00",
            "updated": "2016-10-07T23:04:35+00:00"
        },
        "FC04B90CBB4F465C81FF697E72861829": {
            "id": "237B5A0C1E894FC095B1F02F799C1CF6",
            "type": "Project",
            "listId": "FC04B90CBB4F465C81FF697E72861829",
            "listName": "Project",
            "active": true,
            "display": "13004: 2070\\/2090 Scott St.",
            "structure": {
                "id": "13004",
                "name": "2070\\/2090 Scott St."
            },
            "created": "2016-10-17T20:25:43+00:00",
            "updated": "2017-03-10T10:15:33+00:00"
        },
        "007CC8F8F1D847F0A6E50B9839E64DB3": {
            "id": "AAFBFD172EF14D0882DFC6A6C1D81DB0",
            "type": "ProjectActivity",
            "listId": "007CC8F8F1D847F0A6E50B9839E64DB3",
            "listName": "Project Activity",
            "active": true,
            "display": "13004: 01310: Senior Site Superintendent",
            "structure": {
                "id": "01310",
                "name": "Senior Site Superintendent"
            },
            "created": "2016-10-17T20:27:09+00:00",
            "updated": "2017-03-10T10:17:28+00:00"
        }
    },
    "subtotal": 0,
    "sequence": 1,
    "unitcost": 0,
    "quantity": 3,
    "received": 0,
    "orgunit": {
        "id": "34B6B6F461FD4A65A4A09DFB2D0536D1",
        "display": "Granny Smith (Maestro)"
    },
    "taxes": [
        {
            "id": "3090C19853AC439480AC5BE435066A08",
            "amount": 400,
            "taxListItem": {
                "id": "5AE6E7FE61184BDFBB0F50DB3C937D46",
                "display": "I: HST on Payroll Exp",
                "structure": {
                    "id": "I",
                    "name": "HST on Payroll Exp"
                },
                "type": "Tax"
            }
        },
        {
            "id": "10AE9F547FE74D9CB224450F4B7511B4",
            "amount": 4500,
            "taxListItem": {
                "id": "41D9E7E4DC744628BA86157DAD801A07",
                "display": "A: HST on Sales",
                "structure": {
                    "id": "A",
                    "name": "HST on Sales"
                },
                "type": "Tax"
            }
        }
    ],
    "codeableItem": {
        "id": "7B7EB14A99B643279EC41DF5D41FAEAC",
        "type": "Invoice",
        "number": "Invoice1"
    },
    "children": [],
    "poNumber": ""
}