{
    "id": "AE5970AE05E34F089A476B328236A830",
    "userType": "Standard",
    "active": true,
    "display": "Tom Lei",
    "username": "tom.lei@beanworks.com",
    "firstname": "Tom",
    "lastname": "Lei",
    "srcAvatar36px": "https:\/\/secure.gravatar.com\/avatar\/eaf698c9d332be40c48d5e1e89c61ecb?s=36&d=mm&r=g",
    "orgunit": {
        "id": "D6983D103A53461BA23129EAF210BF13",
        "display": "Engineering"
    },
    "rootOrgUnit": {
        "id": "4374E24311D046ADB6F945BCF46114E6",
        "display": "Beanworks"
    },
    "vendor": {
        "id": "AA908305B4A84BD0BA8517D76063CE71",
        "display": "Tom Lei (Exp)",
        "structure": {
            "id": "367",
            "city": "",
            "name": "Tom Lei (Exp)",
            "phone": "",
            "state": "",
            "suite": "",
            "street": "",
            "country": "",
            "province": "",
            "payeeName": "Tom Lei (Exp)",
            "postalCode": "",
            "contactName": ""
        },
        "type": "Vendor"
    },
    "accessibleOrgUnits": [],
    "roles": [
        {
            "id": "C9EBD22918284CEA96853D33308117AD",
            "display": "Invoice Coder"
        },
        {
            "id": "E461DAC762A4478FA4E2CA04FD29719E",
            "display": "Invoice Creator"
        },
        {
            "id": "A26D8C050B3B4A46A349FF13C44B9986",
            "display": "Expense Creator"
        }
    ],
    "dailyEmail": true,
    "settings": [
        {
            "id": "281EBBD1B8A6413EACE3BAD4A0DB6ECD",
            "key": "failedLoginAttempts",
            "value": 0,
            "userId": "AE5970AE05E34F089A476B328236A830"
        },
        {
            "id": "EAB6841B35EE49C397FF0EFCC6984300",
            "key": "general.email.aliases",
            "value": [],
            "userId": "AE5970AE05E34F089A476B328236A830"
        },
        {
            "id": "3A6960D412BA466491CDDEA734D29BB3",
            "key": "ui.web.general",
            "value": {
                "coding": {
                    "image": {
                        "full": {
                            "slider": 82
                        }
                    }
                }
            },
            "userId": "AE5970AE05E34F089A476B328236A830"
        },
        {
            "id": "55AB6793338745DCAD13A93A1E09E01D",
            "key": "ui.web.invoices",
            "value": {
                "coding": {
                    "sidePanel": {
                        "docked": true,
                        "anchored": "left"
                    }
                },
                "management": {
                    "inprogress": {
                        "customFilters": [],
                        "columns": [
                            {
                                "id": "status",
                                "index": 0,
                                "type": "status",
                                "picked": true,
                                "display": "",
                                "locked": false
                            },
                            {
                                "id": "orgunit",
                                "type": "default",
                                "picked": true,
                                "display": "OU",
                                "index": 1,
                                "locked": false
                            },
                            {
                                "id": "number",
                                "type": "default",
                                "picked": true,
                                "display": "Invoice Number",
                                "index": 2,
                                "locked": false,
                                "sortOrder": "asc"
                            },
                            {
                                "id": "invoiceDate",
                                "type": "date",
                                "picked": true,
                                "display": "Date",
                                "index": 3,
                                "locked": false
                            },
                            {
                                "id": "Currency",
                                "type": "list",
                                "picked": false,
                                "display": "Currency",
                                "index": 4,
                                "locked": false
                            },
                            {
                                "id": "APAccount",
                                "type": "list",
                                "picked": false,
                                "display": "AP Account",
                                "index": 5,
                                "locked": false
                            },
                            {
                                "id": "Type",
                                "type": "list",
                                "picked": false,
                                "display": "Type",
                                "index": 6,
                                "locked": false
                            },
                            {
                                "id": "Vendor",
                                "type": "list",
                                "picked": true,
                                "display": "Vendor",
                                "index": 7,
                                "locked": false
                            },
                            {
                                "id": "CustomerJob",
                                "type": "list",
                                "picked": false,
                                "display": "Customer Job",
                                "index": 8,
                                "locked": false
                            },
                            {
                                "id": "Class",
                                "type": "list",
                                "picked": false,
                                "display": "Class",
                                "index": 9,
                                "locked": false
                            },
                            {
                                "id": "GeneralLedger",
                                "type": "list",
                                "picked": true,
                                "display": "Account",
                                "index": 10,
                                "locked": false
                            },
                            {
                                "id": "dueDate",
                                "type": "date",
                                "picked": true,
                                "display": "Due",
                                "index": 11,
                                "locked": false
                            },
                            {
                                "id": "owner",
                                "type": "default",
                                "picked": true,
                                "display": "Owner",
                                "index": 12,
                                "locked": false
                            },
                            {
                                "id": "description",
                                "type": "default",
                                "picked": true,
                                "display": "Description",
                                "index": 13,
                                "locked": false
                            },
                            {
                                "id": "created",
                                "type": "date",
                                "picked": false,
                                "display": "Received",
                                "index": 14,
                                "locked": false
                            },
                            {
                                "id": "poNumber",
                                "type": "default",
                                "picked": false,
                                "display": "PO Number",
                                "index": 15,
                                "locked": false
                            },
                            {
                                "id": "exportedDate",
                                "type": "date",
                                "picked": false,
                                "display": "Exported",
                                "index": 16,
                                "locked": false
                            },
                            {
                                "id": "subtotal",
                                "type": "monetary",
                                "picked": false,
                                "display": "Subtotal",
                                "index": 17,
                                "locked": false
                            },
                            {
                                "id": "total",
                                "type": "monetary",
                                "picked": true,
                                "display": "Total",
                                "index": 18,
                                "locked": false
                            }
                        ],
                        "onlymine": false
                    },
                    "sidePanel": {
                        "activeAccordions": [
                            0,
                            1,
                            2,
                            3
                        ]
                    }
                },
                "autocomplete": {
                    "activeStatus": true,
                    "wildCard": true
                }
            },
            "userId": "AE5970AE05E34F089A476B328236A830"
        },
        {
            "id": "53F2BC71BDA9423F8389E223767D1F3B",
            "key": "ui.web.payments",
            "value": {
                "management": {
                    "report": {
                        "customFilters": [
                            {
                                "name": "New Filter",
                                "active": false,
                                "legalEntity": {
                                    "id": "4374E24311D046ADB6F945BCF46114E6",
                                    "display": "Beanworks"
                                },
                                "visible": true,
                                "filters": [
                                    {
                                        "5D507130092F4DF499B1D127569E2A1F": {
                                            "id": "5D507130092F4DF499B1D127569E2A1F",
                                            "display": "Vendor",
                                            "data": [
                                                {
                                                    "id": "AA908305B4A84BD0BA8517D76063CE71",
                                                    "display": "Tom Lei (Exp)",
                                                    "parentDisplay": "Vendor"
                                                }
                                            ],
                                            "isList": true
                                        }
                                    }
                                ],
                                "isSearch": false
                            }
                        ]
                    },
                    "sidePanel": {
                        "activeAccordions": [
                            0,
                            1
                        ]
                    }
                }
            },
            "userId": "AE5970AE05E34F089A476B328236A830"
        }
    ],
    "access_token": "VMIOVsHJCqMvB9KiAvoKoFk_5stBiMIDefNGqKfcr0s",
    "refresh_token": "vk8Uy5gN8nQKBmzMi9_KXP_UsrzoUiJp0otJVnIBShQ",
    "expiry": "2017-07-28T04:17:51+0000",
    "featureFlags": [
        "payment",
        "onlyStoreFilesInS3",
        "expenses",
        "checkissuingOnboarding"
    ],
    "fullOrgUnitStructure": {
        "id": "4374E24311D046ADB6F945BCF46114E6",
        "display": "Beanworks",
        "legalEntity": true,
        "erp": {
            "type": "quickbooksonline",
            "connected": true,
            "synced": true
        },
        "tz": "America\/Vancouver",
        "exportFormats": [
            {
                "id": "72FBDBB3773F4C4CB0F861DBA77C5AD1",
                "display": "QBXML",
                "active": true,
                "type": "XML",
                "ftpIntegrated": true
            },
            {
                "display": "PDF",
                "active": true,
                "type": "BeanPDF",
                "ftpIntegrated": false
            }
        ],
        "settings": [
            {
                "id": "E9BE70FB11794AF385D467A6700777F5",
                "key": "country",
                "value": "CA"
            },
            {
                "id": "AF9A13FA604443F799B8ACEB589A6324",
                "key": "invoice.export.batchName",
                "value": {
                    "enabled": false
                }
            },
            {
                "id": "16A0ABC7C30F4E899E87B4043017A142",
                "key": "invoice.export.postMonth",
                "value": {
                    "enabled": false
                }
            },
            {
                "id": "876052E3252C4F658607FEA51C0A486D",
                "key": "invoice.forms.details.description",
                "value": {
                    "required": false,
                    "allowApproverOverride": true
                }
            },
            {
                "id": "201E2B01C4044573BA10307E89608C92",
                "key": "invoice.forms.details.dueDate",
                "value": {
                    "required": true,
                    "allowApproverOverride": true
                }
            },
            {
                "id": "6783143CA5684C47A630E979C598FBA3",
                "key": "invoice.forms.details.invoiceDate",
                "value": {
                    "required": true,
                    "allowApproverOverride": true
                }
            },
            {
                "id": "B594476482BF44D4997B9C9A12A179BE",
                "key": "invoice.forms.details.lineitem.description",
                "value": {
                    "required": false,
                    "allowApproverOverride": true
                }
            },
            {
                "id": "EBEA0A0E31294934972EEAB93C114C57",
                "key": "invoice.forms.details.lineitem.list",
                "value": {
                    "listId": "BFBD4E15A041406DA5F9CC3429340F52",
                    "required": false,
                    "allowApproverOverride": true
                }
            },
            {
                "id": "D7690BA6FA6442398CF0E25D26B742E0",
                "key": "invoice.forms.details.lineitem.list",
                "value": {
                    "listId": "5F2A770873E84F11BD1AAC5A62E64250",
                    "required": true,
                    "allowApproverOverride": true
                }
            },
            {
                "id": "B3B4D62717A24517938DB7F5A85D2ACC",
                "key": "invoice.forms.details.lineitem.list",
                "value": {
                    "listId": "284FC82F1C4744E18576E2A69A0822E6",
                    "required": false,
                    "allowApproverOverride": true
                }
            },
            {
                "id": "035ED5AA0EF84B92A91112D52917E371",
                "key": "invoice.forms.details.lineitem.orgunit",
                "value": {
                    "allowApproverOverride": true
                }
            },
            {
                "id": "9854943C4760427788BF1BDD0F05AB18",
                "key": "invoice.forms.details.list",
                "value": {
                    "listId": "780262059555444AA5D52F0E05E50B74",
                    "required": false,
                    "allowApproverOverride": true
                }
            },
            {
                "id": "639125ECDDF64805BCA60D40EAB27A39",
                "key": "invoice.forms.details.list",
                "value": {
                    "listId": "5D507130092F4DF499B1D127569E2A1F",
                    "required": true
                }
            },
            {
                "id": "0E9CC68B5EF2426AA7C6F11D5880EB6F",
                "key": "invoice.forms.details.list",
                "value": {
                    "listId": "DD09984507D14BCDB8DAA4FC50CC8885",
                    "required": false,
                    "allowApproverOverride": true
                }
            },
            {
                "id": "0681B973AF904507B2B0235EC191E74A",
                "key": "invoice.forms.details.list",
                "value": {
                    "listId": "A8EC935C64CB4A96A4EC35F61652E8D9",
                    "required": true,
                    "allowApproverOverride": true
                }
            },
            {
                "id": "4034BE02A8924D03A4E8D9E68AFEAE37",
                "key": "invoice.forms.details.number",
                "value": {
                    "required": true,
                    "allowApproverOverride": true
                }
            },
            {
                "id": "C4CD792B04FF4CD9A4B8D631849EC083",
                "key": "payment.forms.details.list",
                "value": {
                    "listId": "2C98366A9F4E4E4AA7FB332233B2E2C6",
                    "required": true,
                    "allowApproverOverride": false
                }
            },
            {
                "id": "687C0588D67C46869D676D14D10192E6",
                "key": "payment.trial",
                "value": {
                    "enabled": false,
                    "payment.trial.number.of.vendors": 0
                }
            }
        ],
        "details": {
            "apDepartment": {
                "id": "31FEA7DE820D4EC0B978D8DA52992B96",
                "created": "2017-05-23T14:43:03+00:00",
                "updated": "2017-05-23T14:43:03+00:00",
                "companyName": "Beanworks",
                "contactName": {
                    "first": "Jack",
                    "last": "Hilliard"
                },
                "phone": "(604) 318-8602",
                "email": "accounting@beanworks.com",
                "address": {
                    "lineOne": "311 West Pender St.",
                    "lineTwo": "Suite 300",
                    "city": "Vancouver",
                    "province": "BC",
                    "postalCode": "V6B1T3",
                    "country": "Canada"
                }
            }
        },
        "coding": {
            "beanPayment": [
                {
                    "id": "780262059555444AA5D52F0E05E50B74",
                    "display": "AP Account",
                    "type": "APAccount",
                    "association": "CodeableItem",
                    "displayTemplate": "{{AcctNum}}: {{FullyQualifiedName}}",
                    "structTemplate": {
                        "id": "{{Id}}"
                    },
                    "active": true,
                    "orgunit": {
                        "id": "4374E24311D046ADB6F945BCF46114E6",
                        "display": "Beanworks"
                    },
                    "integrated": true,
                    "created": "2014-04-09T19:17:22+00:00",
                    "updated": "2014-04-15T16:37:10+00:00",
                    "default": {
                        "id": "DD3DDC4BB101467C9D6265F685C8E156",
                        "display": "2000: Accounts Payable - CAD",
                        "structure": {
                            "id": "55"
                        },
                        "type": "APAccount"
                    }
                },
                {
                    "id": "1A6A12B22813460B9582BD65A7C285BF",
                    "display": "Payment Method",
                    "type": "BeanPaymentMethod",
                    "association": "PayablePayment",
                    "displayTemplate": "{{name}}",
                    "structTemplate": {
                        "name": "{{name}}",
                        "method": "{{method}}"
                    },
                    "active": true,
                    "orgunit": {
                        "id": "4374E24311D046ADB6F945BCF46114E6",
                        "display": "Beanworks"
                    },
                    "integrated": false,
                    "created": "2015-11-05T20:06:09+00:00",
                    "updated": "2015-11-05T20:06:09+00:00"
                },
                {
                    "id": "6A90EB317720452CB173E7079425024A",
                    "display": "Department",
                    "type": "Department",
                    "association": "CodeableItem",
                    "displayTemplate": "{{FullyQualifiedName}}",
                    "structTemplate": {
                        "id": "{{Id}}"
                    },
                    "active": false,
                    "orgunit": {
                        "id": "4374E24311D046ADB6F945BCF46114E6",
                        "display": "Beanworks"
                    },
                    "integrated": true,
                    "created": "2016-08-04T19:34:55+00:00",
                    "updated": "2016-08-04T19:34:55+00:00"
                },
                {
                    "id": "DD09984507D14BCDB8DAA4FC50CC8885",
                    "display": "Currency",
                    "type": "Currency",
                    "association": "CodeableItem",
                    "displayTemplate": "{{CurrencyName}}",
                    "structTemplate": {
                        "id": "{{CurrencyName}}"
                    },
                    "active": true,
                    "orgunit": {
                        "id": "4374E24311D046ADB6F945BCF46114E6",
                        "display": "Beanworks"
                    },
                    "integrated": true,
                    "created": "2013-07-11T17:47:32+00:00",
                    "updated": "2016-10-19T22:07:16+00:00",
                    "default": {
                        "id": "9D2C8DAE2953453F8FD9B409F946597C",
                        "display": "CAD",
                        "structure": {
                            "id": "CAD"
                        },
                        "type": "Currency"
                    }
                },
                {
                    "id": "2C98366A9F4E4E4AA7FB332233B2E2C6",
                    "display": "Bank Name",
                    "type": "FundSource",
                    "association": "PayablePayment",
                    "displayTemplate": "{{name}}",
                    "structTemplate": {
                        "name": "{{name}}",
                        "method": "{{method}}"
                    },
                    "active": true,
                    "orgunit": {
                        "id": "4374E24311D046ADB6F945BCF46114E6",
                        "display": "Beanworks"
                    },
                    "integrated": false,
                    "created": "2016-05-19T20:31:51+00:00",
                    "updated": "2016-11-14T20:21:20+00:00",
                    "default": {
                        "id": "70134976D76948DE8C217F8AD37A19D9",
                        "display": "[CAD] BlueShore Financial (0727)",
                        "structure": {
                            "name": "[CAD] BlueShore Financial (0727)",
                            "method": ""
                        },
                        "type": "FundSource"
                    }
                },
                {
                    "id": "CFE9BA3BCB414B449CFE64DA5ADDD503",
                    "display": "Auto Release",
                    "type": "Tag",
                    "association": "PayablePayment",
                    "displayTemplate": "{{name}}",
                    "structTemplate": {
                        "tag": "{{tag}}"
                    },
                    "active": true,
                    "orgunit": {
                        "id": "4374E24311D046ADB6F945BCF46114E6",
                        "display": "Beanworks"
                    },
                    "integrated": false,
                    "created": "2016-05-06T17:42:39+00:00",
                    "updated": "2016-05-06T17:42:39+00:00"
                },
                {
                    "id": "E841BA427039465EA748C97362F5D98B",
                    "display": "Bank GL",
                    "type": "BankGLAccount",
                    "association": "PayablePayment",
                    "displayTemplate": "{{FullyQualifiedName}}",
                    "structTemplate": {
                        "id": "{{Id}}"
                    },
                    "active": true,
                    "orgunit": {
                        "id": "4374E24311D046ADB6F945BCF46114E6",
                        "display": "Beanworks"
                    },
                    "integrated": true,
                    "created": "2016-05-04T10:55:53+00:00",
                    "updated": "2016-08-12T22:10:50+00:00",
                    "default": {
                        "id": "EB398AD3A1AA4E1A8B6B46B3EBD370BC",
                        "display": "Blueshore Financial - CAD",
                        "structure": {
                            "id": "56"
                        },
                        "type": "BankGLAccount"
                    }
                },
                {
                    "id": "5D507130092F4DF499B1D127569E2A1F",
                    "display": "Vendor",
                    "type": "Vendor",
                    "association": "CodeableItem",
                    "displayTemplate": "{{DisplayName}}",
                    "structTemplate": {
                        "id": "{{Id}}",
                        "city": "{{BillAddr_City}}",
                        "name": "{{DisplayName}}",
                        "phone": "{{PrimaryPhone_FreeFormNumber}}",
                        "country": "{{BillAddr_Country}}",
                        "province": "{{BillAddr_CountrySubDivisionCode}}",
                        "postalCode": "{{BillAddr_PostalCode}}",
                        "payeeName": "{{PrintOnCheckName}}",
                        "state": "",
                        "contactName": "",
                        "street": "{{BillAddr_Line1}}",
                        "suite": "{{BillAddr_Line2}}"
                    },
                    "active": true,
                    "orgunit": {
                        "id": "4374E24311D046ADB6F945BCF46114E6",
                        "display": "Beanworks"
                    },
                    "integrated": true,
                    "created": "2013-07-11T17:47:44+00:00",
                    "updated": "2015-11-09T18:18:37+00:00"
                }
            ],
            "invoice": [
                {
                    "id": "347B1382EE754BA4BB87849F8DE3AF2C",
                    "display": "Prepaid",
                    "type": "Prepaid",
                    "association": "Invoice",
                    "displayTemplate": "{{name}}",
                    "structTemplate": {
                        "tag": "{{tag}}"
                    },
                    "active": true,
                    "orgunit": {
                        "id": "4374E24311D046ADB6F945BCF46114E6",
                        "display": "Beanworks"
                    },
                    "integrated": false,
                    "created": "2016-08-24T21:59:02+00:00",
                    "updated": "2016-08-24T21:59:02+00:00",
                    "default": {
                        "id": "F6AEE8836BDF48F0B525A7E32545F4D3",
                        "display": "No",
                        "structure": {
                            "tag": ""
                        },
                        "type": "Prepaid"
                    }
                },
                {
                    "id": "780262059555444AA5D52F0E05E50B74",
                    "display": "AP Account",
                    "type": "APAccount",
                    "association": "CodeableItem",
                    "displayTemplate": "{{AcctNum}}: {{FullyQualifiedName}}",
                    "structTemplate": {
                        "id": "{{Id}}"
                    },
                    "active": true,
                    "orgunit": {
                        "id": "4374E24311D046ADB6F945BCF46114E6",
                        "display": "Beanworks"
                    },
                    "integrated": true,
                    "created": "2014-04-09T19:17:22+00:00",
                    "updated": "2014-04-15T16:37:10+00:00",
                    "default": {
                        "id": "DD3DDC4BB101467C9D6265F685C8E156",
                        "display": "2000: Accounts Payable - CAD",
                        "structure": {
                            "id": "55"
                        },
                        "type": "APAccount"
                    }
                },
                {
                    "id": "A8EC935C64CB4A96A4EC35F61652E8D9",
                    "display": "Type",
                    "type": "Type",
                    "association": "Invoice",
                    "displayTemplate": "{{Name}}",
                    "active": true,
                    "orgunit": {
                        "id": "4374E24311D046ADB6F945BCF46114E6",
                        "display": "Beanworks"
                    },
                    "integrated": true,
                    "created": "2014-10-10T00:21:32+00:00",
                    "updated": "2014-12-12T17:16:26+00:00",
                    "default": {
                        "id": "3961C4E3F1014E7D81EC47D4B58D84AA",
                        "display": "Normal AP",
                        "structure": [],
                        "type": "Type"
                    }
                },
                {
                    "id": "6A90EB317720452CB173E7079425024A",
                    "display": "Department",
                    "type": "Department",
                    "association": "CodeableItem",
                    "displayTemplate": "{{FullyQualifiedName}}",
                    "structTemplate": {
                        "id": "{{Id}}"
                    },
                    "active": false,
                    "orgunit": {
                        "id": "4374E24311D046ADB6F945BCF46114E6",
                        "display": "Beanworks"
                    },
                    "integrated": true,
                    "created": "2016-08-04T19:34:55+00:00",
                    "updated": "2016-08-04T19:34:55+00:00"
                },
                {
                    "id": "DD09984507D14BCDB8DAA4FC50CC8885",
                    "display": "Currency",
                    "type": "Currency",
                    "association": "CodeableItem",
                    "displayTemplate": "{{CurrencyName}}",
                    "structTemplate": {
                        "id": "{{CurrencyName}}"
                    },
                    "active": true,
                    "orgunit": {
                        "id": "4374E24311D046ADB6F945BCF46114E6",
                        "display": "Beanworks"
                    },
                    "integrated": true,
                    "created": "2013-07-11T17:47:32+00:00",
                    "updated": "2016-10-19T22:07:16+00:00",
                    "default": {
                        "id": "9D2C8DAE2953453F8FD9B409F946597C",
                        "display": "CAD",
                        "structure": {
                            "id": "CAD"
                        },
                        "type": "Currency"
                    }
                },
                {
                    "id": "5D507130092F4DF499B1D127569E2A1F",
                    "display": "Vendor",
                    "type": "Vendor",
                    "association": "CodeableItem",
                    "displayTemplate": "{{DisplayName}}",
                    "structTemplate": {
                        "id": "{{Id}}",
                        "city": "{{BillAddr_City}}",
                        "name": "{{DisplayName}}",
                        "phone": "{{PrimaryPhone_FreeFormNumber}}",
                        "country": "{{BillAddr_Country}}",
                        "province": "{{BillAddr_CountrySubDivisionCode}}",
                        "postalCode": "{{BillAddr_PostalCode}}",
                        "payeeName": "{{PrintOnCheckName}}",
                        "state": "",
                        "contactName": "",
                        "street": "{{BillAddr_Line1}}",
                        "suite": "{{BillAddr_Line2}}"
                    },
                    "active": true,
                    "orgunit": {
                        "id": "4374E24311D046ADB6F945BCF46114E6",
                        "display": "Beanworks"
                    },
                    "integrated": true,
                    "created": "2013-07-11T17:47:44+00:00",
                    "updated": "2015-11-09T18:18:37+00:00"
                }
            ],
            "lineItems": [
                {
                    "id": "BFBD4E15A041406DA5F9CC3429340F52",
                    "display": "Customer",
                    "type": "Customer",
                    "association": "LineItem",
                    "displayTemplate": "{{FullyQualifiedName}}",
                    "structTemplate": {
                        "id": "{{Id}}"
                    },
                    "active": true,
                    "orgunit": {
                        "id": "4374E24311D046ADB6F945BCF46114E6",
                        "display": "Beanworks"
                    },
                    "integrated": true,
                    "created": "2014-04-09T19:17:22+00:00",
                    "updated": "2014-04-09T19:17:22+00:00"
                },
                {
                    "id": "284FC82F1C4744E18576E2A69A0822E6",
                    "display": "Class",
                    "type": "Class",
                    "association": "LineItem",
                    "displayTemplate": "{{Name}}",
                    "structTemplate": {
                        "id": "{{Id}}"
                    },
                    "active": true,
                    "orgunit": {
                        "id": "4374E24311D046ADB6F945BCF46114E6",
                        "display": "Beanworks"
                    },
                    "integrated": true,
                    "created": "2014-04-09T19:17:22+00:00",
                    "updated": "2014-04-09T19:17:22+00:00"
                },
                {
                    "id": "5F2A770873E84F11BD1AAC5A62E64250",
                    "display": "Account",
                    "type": "GeneralLedger",
                    "association": "LineItem",
                    "displayTemplate": "{{AcctNum}}: {{FullyQualifiedName}}",
                    "structTemplate": {
                        "id": "{{Id}}"
                    },
                    "active": true,
                    "orgunit": {
                        "id": "4374E24311D046ADB6F945BCF46114E6",
                        "display": "Beanworks"
                    },
                    "integrated": true,
                    "created": "2013-07-11T17:47:23+00:00",
                    "updated": "2016-08-10T20:52:10+00:00"
                },
                {
                    "id": "BFAE7AFF4BFC4C948A1F0364E1B6F590",
                    "display": "Item",
                    "type": "Item",
                    "association": "LineItem",
                    "displayTemplate": "{{FullyQualifiedName}}",
                    "structTemplate": {
                        "id": "{{Id}}"
                    },
                    "active": false,
                    "orgunit": {
                        "id": "4374E24311D046ADB6F945BCF46114E6",
                        "display": "Beanworks"
                    },
                    "integrated": true,
                    "created": "2016-05-06T17:37:25+00:00",
                    "updated": "2016-06-09T23:16:51+00:00"
                },
                {
                    "id": "029FE7750FC24614A225E9B22B9393C6",
                    "display": "Billable",
                    "type": "Billable",
                    "association": "LineItem",
                    "displayTemplate": "{{Name}}",
                    "structTemplate": {
                        "id": "{{Value}}",
                        "name": "{{Name}}"
                    },
                    "active": false,
                    "orgunit": {
                        "id": "4374E24311D046ADB6F945BCF46114E6",
                        "display": "Beanworks"
                    },
                    "integrated": true,
                    "created": "2016-08-04T19:34:50+00:00",
                    "updated": "2016-08-04T19:34:50+00:00"
                }
            ],
            "payment": [
                {
                    "id": "15E5FADDD2704C9289CE9D9670A93C87",
                    "display": "PaymentChequing",
                    "type": "ImpPayment",
                    "association": "ImportedPayment",
                    "displayTemplate": "{{TxnID}}",
                    "structTemplate": {
                        "id": "{{TxnID}}",
                        "amount": "{{Amount}}",
                        "date": "{{TxnDate}}",
                        "invoiceExtId": "{{AppliedToTxnRet_TxnID}}",
                        "vendorId": "{{PayeeEntityRef_ListID}}",
                        "ref": "{{RefNumber}}"
                    },
                    "active": false,
                    "orgunit": {
                        "id": "4374E24311D046ADB6F945BCF46114E6",
                        "display": "Beanworks"
                    },
                    "integrated": true,
                    "created": "2014-07-10T23:44:29+00:00",
                    "updated": "2014-07-10T23:44:29+00:00"
                },
                {
                    "id": "979D561AD6814C0695741BC73EB21F5E",
                    "display": "PaymentCrCard",
                    "type": "ImpPayment",
                    "association": "ImportedPayment",
                    "displayTemplate": "{{TxnID}}",
                    "structTemplate": {
                        "id": "{{TxnID}}",
                        "amount": "{{Amount}}",
                        "date": "{{TxnDate}}",
                        "invoiceExtId": "{{AppliedToTxnRet_TxnID}}",
                        "vendorId": "{{PayeeEntityRef_ListID}}",
                        "ref": "CC"
                    },
                    "active": false,
                    "orgunit": {
                        "id": "4374E24311D046ADB6F945BCF46114E6",
                        "display": "Beanworks"
                    },
                    "integrated": true,
                    "created": "2014-07-10T23:44:29+00:00",
                    "updated": "2014-07-10T23:44:29+00:00"
                },
                {
                    "id": "A7DFE8AB351D4048A2900B017EB44758",
                    "display": "Payment",
                    "type": "ImpPayment",
                    "association": "ImportedPayment",
                    "displayTemplate": "{{Id}}",
                    "structTemplate": {
                        "id": "{{Id}}",
                        "amount": "{{Line_Amount}}",
                        "date": "{{TxnDate}}",
                        "invoiceExtId": "{{Line_LinkedTxn_TxnId}}",
                        "vendorId": "{{VendorRef}}",
                        "ref": "{{DocNumber}}",
                        "type": "{{PayType}}"
                    },
                    "active": true,
                    "orgunit": {
                        "id": "4374E24311D046ADB6F945BCF46114E6",
                        "display": "Beanworks"
                    },
                    "integrated": true,
                    "created": "2016-08-04T19:34:50+00:00",
                    "updated": "2016-08-04T19:34:50+00:00"
                }
            ],
            "purchaseOrder": [
                {
                    "id": "780262059555444AA5D52F0E05E50B74",
                    "display": "AP Account",
                    "type": "APAccount",
                    "association": "CodeableItem",
                    "displayTemplate": "{{AcctNum}}: {{FullyQualifiedName}}",
                    "structTemplate": {
                        "id": "{{Id}}"
                    },
                    "active": true,
                    "orgunit": {
                        "id": "4374E24311D046ADB6F945BCF46114E6",
                        "display": "Beanworks"
                    },
                    "integrated": true,
                    "created": "2014-04-09T19:17:22+00:00",
                    "updated": "2014-04-15T16:37:10+00:00",
                    "default": {
                        "id": "DD3DDC4BB101467C9D6265F685C8E156",
                        "display": "2000: Accounts Payable - CAD",
                        "structure": {
                            "id": "55"
                        },
                        "type": "APAccount"
                    }
                },
                {
                    "id": "6A90EB317720452CB173E7079425024A",
                    "display": "Department",
                    "type": "Department",
                    "association": "CodeableItem",
                    "displayTemplate": "{{FullyQualifiedName}}",
                    "structTemplate": {
                        "id": "{{Id}}"
                    },
                    "active": false,
                    "orgunit": {
                        "id": "4374E24311D046ADB6F945BCF46114E6",
                        "display": "Beanworks"
                    },
                    "integrated": true,
                    "created": "2016-08-04T19:34:55+00:00",
                    "updated": "2016-08-04T19:34:55+00:00"
                },
                {
                    "id": "DD09984507D14BCDB8DAA4FC50CC8885",
                    "display": "Currency",
                    "type": "Currency",
                    "association": "CodeableItem",
                    "displayTemplate": "{{CurrencyName}}",
                    "structTemplate": {
                        "id": "{{CurrencyName}}"
                    },
                    "active": true,
                    "orgunit": {
                        "id": "4374E24311D046ADB6F945BCF46114E6",
                        "display": "Beanworks"
                    },
                    "integrated": true,
                    "created": "2013-07-11T17:47:32+00:00",
                    "updated": "2016-10-19T22:07:16+00:00",
                    "default": {
                        "id": "9D2C8DAE2953453F8FD9B409F946597C",
                        "display": "CAD",
                        "structure": {
                            "id": "CAD"
                        },
                        "type": "Currency"
                    }
                },
                {
                    "id": "5D507130092F4DF499B1D127569E2A1F",
                    "display": "Vendor",
                    "type": "Vendor",
                    "association": "CodeableItem",
                    "displayTemplate": "{{DisplayName}}",
                    "structTemplate": {
                        "id": "{{Id}}",
                        "city": "{{BillAddr_City}}",
                        "name": "{{DisplayName}}",
                        "phone": "{{PrimaryPhone_FreeFormNumber}}",
                        "country": "{{BillAddr_Country}}",
                        "province": "{{BillAddr_CountrySubDivisionCode}}",
                        "postalCode": "{{BillAddr_PostalCode}}",
                        "payeeName": "{{PrintOnCheckName}}",
                        "state": "",
                        "contactName": "",
                        "street": "{{BillAddr_Line1}}",
                        "suite": "{{BillAddr_Line2}}"
                    },
                    "active": true,
                    "orgunit": {
                        "id": "4374E24311D046ADB6F945BCF46114E6",
                        "display": "Beanworks"
                    },
                    "integrated": true,
                    "created": "2013-07-11T17:47:44+00:00",
                    "updated": "2015-11-09T18:18:37+00:00"
                }
            ],
            "tax": [
                {
                    "id": "E342E07CF09B4B5FAFCCAE9BD5490C2C",
                    "display": "Tax",
                    "type": "Tax",
                    "association": "CodeableItem",
                    "displayTemplate": "{{Name}}",
                    "structTemplate": {
                        "id": "{{ListID}}"
                    },
                    "active": true,
                    "orgunit": {
                        "id": "4374E24311D046ADB6F945BCF46114E6",
                        "display": "Beanworks"
                    },
                    "integrated": true,
                    "created": "2013-07-11T17:47:38+00:00",
                    "updated": "2014-04-14T23:45:37+00:00",
                    "defaults": [
                        {
                            "id": "064E74ADE5C04A8381401D4B36D359D2",
                            "display": "GST  Payable",
                            "structure": {
                                "id": ""
                            },
                            "type": "Tax"
                        }
                    ]
                }
            ],
            "receipt": [],
            "receiptLineItem": [
                {
                    "id": "44DC7F596F2A43ADB929AA9185D8C609",
                    "display": "Category",
                    "type": "Category",
                    "association": "ReceiptLineItem",
                    "displayTemplate": "{{name}}",
                    "structTemplate": {
                        "name": "{{name}}"
                    },
                    "active": true,
                    "orgunit": {
                        "id": "4374E24311D046ADB6F945BCF46114E6",
                        "display": "Beanworks"
                    },
                    "integrated": true,
                    "created": "2017-07-25T17:36:02+00:00",
                    "updated": "2017-07-25T17:36:02+00:00"
                }
            ],
            "exportFormats": [
                {
                    "id": "72FBDBB3773F4C4CB0F861DBA77C5AD1",
                    "display": "QBXML",
                    "active": true,
                    "type": "XML",
                    "ftpIntegrated": true
                }
            ]
        },
        "children": [
            {
                "id": "1192BBCABBB84F48856CD408E37300A8",
                "display": "Marketing",
                "legalEntity": false,
                "settings": [],
                "details": [],
                "children": [
                    {
                        "id": "095A3DE7C1A44FDCB2B5316D20AEB304",
                        "display": "Marketing - Emp. Exp.",
                        "legalEntity": false,
                        "settings": [],
                        "details": [],
                        "children": []
                    }
                ]
            },
            {
                "id": "31DA51860A8640A9803F6ABA2B4D32B8",
                "display": "Sales",
                "legalEntity": false,
                "settings": [],
                "details": [],
                "children": [
                    {
                        "id": "A91C9C948B6C451BA29C1875A526BBC3",
                        "display": "Sales - Emp. Exp.",
                        "legalEntity": false,
                        "settings": [],
                        "details": [],
                        "children": []
                    }
                ]
            },
            {
                "id": "39E9A13238E7431DA98AFF8807DD0731",
                "display": "Operations",
                "legalEntity": false,
                "settings": [],
                "details": [],
                "children": [
                    {
                        "id": "79BA0B3F0C5F4948A6096CA7FD32AE04",
                        "display": "Ops - Emp. Exp.",
                        "legalEntity": false,
                        "settings": [],
                        "details": [],
                        "children": []
                    },
                    {
                        "id": "607F547A82174DC59B95BDAFECAFFA6C",
                        "display": "CSR",
                        "legalEntity": false,
                        "settings": [],
                        "details": [],
                        "children": []
                    }
                ]
            },
            {
                "id": "D6983D103A53461BA23129EAF210BF13",
                "display": "Engineering",
                "legalEntity": false,
                "settings": [],
                "details": [],
                "children": [
                    {
                        "id": "A96CF87C19D34EF792D289279095EB1A",
                        "display": "Engineering - Emp. Exp.",
                        "legalEntity": false,
                        "settings": [],
                        "details": [],
                        "children": []
                    }
                ]
            },
            {
                "id": "19B854AEAC914629A284BAF3008819AF",
                "display": "Admin",
                "legalEntity": false,
                "settings": [],
                "details": [],
                "children": [
                    {
                        "id": "CBE01B90510347ECB9EEEA31841DC2CC",
                        "display": "Admin - Emp. Exp.",
                        "legalEntity": false,
                        "settings": [],
                        "details": [],
                        "children": []
                    }
                ]
            },
            {
                "id": "49846F3F3BF74F12B6E35D9E284CFE08",
                "display": "Channel",
                "legalEntity": false,
                "settings": [],
                "details": [],
                "children": [
                    {
                        "id": "C1807F42A7BE47F5AA071CD81995178A",
                        "display": "Channel - Emp. Exp.",
                        "legalEntity": false,
                        "settings": [],
                        "details": [],
                        "children": []
                    }
                ]
            }
        ]
    },
    "permissions": [
        "detailsAddPages",
        "detailsChangeOwner",
        "detailsChangePages",
        "detailsComment",
        "detailsDelete",
        "detailsEditHeader",
        "detailsEditLines",
        "detailsRemovePages",
        "detailsReset",
        "detailsSubmitForApproval",
        "detailsView",
        "detailsViewPaymentDetailsAndApprovalHistory",
        "expComment",
        "expCreateAndEdit",
        "expInProgress",
        "inProgressView",
        "invSmartCoding",
        "newArrivalsCreate",
        "newArrivalsEditFull",
        "newArrivalsViewAndEditMinimal",
        "paymentReport",
        "recComment",
        "recCreateAndEdit",
        "search",
        "settingsUsersModifySelf",
        "settingsUsersViewSelf"
    ],
    "orgTree": [
        {
            "id": "4374E24311D046ADB6F945BCF46114E6",
            "title": "Beanworks",
            "expanded": true,
            "children": [
                {
                    "id": "D6983D103A53461BA23129EAF210BF13",
                    "title": "Engineering",
                    "expanded": true,
                    "children": [
                        {
                            "id": "A96CF87C19D34EF792D289279095EB1A",
                            "title": "Engineering - Emp. Exp.",
                            "expanded": true,
                            "children": []
                        }
                    ]
                }
            ]
        }
    ],
    "podNumber": 2
}