{
    "features": [
        {
            "title": "Coming Soon: Report History",
            "date": "5-15-2017",
            "description": "We’re so excited to release this feature that we wanted to share our excitement with you! You’ll soon be able to create a report and do other tasks within beanworks while the report is being generated. When it is ready, you’ll receive a notification and can return to the report history box to download it. Click the link below for more details!",
            "link": "https://support.beanworks.com/customer/portal/articles/2599766-release-notes-for-beanworks?b_id=15735#Reporthistory"
        },
        {
            "title": "Security Time-Out",
            "date": "1-25-2017",
            "description": "Hello Bean-counters! Long time no speak! We have a very exciting new security feature, the automatic logging out of users out after 30 minutes of inactivity. This means that if a mouse movement or click has not been made within your Beanworks browser in 30 minutes, you will be logged out to keep you and your data protected. No risk of snoopy neighbours checking how you code your invoices when you are not looking. To find out more, click the link below!",
            "link": "http://support.beanworks.com/customer/portal/articles/2599766-release-notes-for-beanworks?b_id=15735#Securitytimeout"
        },
        {
            "title": "Batch Create User",
            "date": "10-20-2016",
            "description": "System administrators can now create a batch of new users by copying a table from Excel or Word and pasting it to the ‘Batch Edit User’ tool found in the general settings area. This will decrease the amount of time spent adding new users and increase the amount time you can spend doing other important things, like sitting back and watching invoices practically process themselves in Beanworks!  Ahem… to find out more, click the link below!",
            "link": "http://support.beanworks.com/customer/portal/articles/2599766-release-notes-for-beanworks?b_id=15735#BatchCreateUser"
        },
        {
            "title": "What's New? What's New!",
            "date": "10-13-2016",
            "description": "Hello! Welcome to the inaugural Beanworks Feature Note™! And do we ever have a great feature for you today!  This is a brand new Feature Notes window where you can read all about the latest and greatest Beanworks features! If you're itching to try get yourself up to speed (and who wouldn't be), kindly click “Learn more at our support desk” and it will take you to the detailed release notes that will give more information about your new features!  We hope you are as excited about this feature as we are!",
            "link": "http://support.beanworks.com/customer/portal/articles/2599766-release-notes-for-beanworks?b_id=15735#Whatsnew"
        },
        {
            "title": "New User Interface!",
            "date": "08-31-2016",
            "description": "Every once in awhile, it’s good to try a new look. Here at Beanworks the team has been working for months to bring a new and improved feel to the system which we are excited to share with you.",
            "link": "http://support.beanworks.com/customer/portal/articles/2599766-release-notes-for-beanworks?b_id=15735#NewUI"
        }
    ]
}
