// Jest Snapshot v1, https://goo.gl/fbAQLP

exports[`ApprovalHistory Record Should set the correct default 1`] = `
Object {
  "action": null,
  "comment": Object {
    "created": null,
    "id": null,
    "text": null,
    "user": Object {
      "display": null,
      "id": null,
      "srcAvatar36px": null,
    },
  },
  "created": null,
  "explicit": null,
  "id": null,
  "user": Object {
    "display": null,
    "id": null,
    "srcAvatar36px": null,
  },
  "valid": null,
}
`;

exports[`ApprovalHistory Record When loaded with actual data Should match snapshot 1`] = `
Object {
  "action": "Approved",
  "comment": Object {
    "created": "2017-08-03T22:53:15+00:00",
    "id": "9C9243A6B19346B0BD52F2D25040859E",
    "text": "Approved during submission.",
    "user": Object {
      "display": "Tom Lei",
      "id": "51D3E0D0A443403C8E854D9D962675A5",
      "srcAvatar36px": "https://secure.gravatar.com/avatar/41352c3707a4661b14884dd9f5c6e618?s=36&d=mm&r=g",
    },
  },
  "created": "2017-08-03T22:53:15+00:00",
  "explicit": true,
  "id": "ABB67BBEA3E04D90830193A7657A72FA",
  "user": Object {
    "display": "Tom Lei",
    "id": "51D3E0D0A443403C8E854D9D962675A5",
    "srcAvatar36px": "https://secure.gravatar.com/avatar/41352c3707a4661b14884dd9f5c6e618?s=36&d=mm&r=g",
  },
  "valid": true,
}
`;

exports[`ApprovalHistory Record When loaded with actual data Should match snapshot 2`] = `
Object {
  "created": "2017-08-03T22:53:15+00:00",
  "id": "9C9243A6B19346B0BD52F2D25040859E",
  "text": "Approved during submission.",
  "user": Object {
    "display": "Tom Lei",
    "id": "51D3E0D0A443403C8E854D9D962675A5",
    "srcAvatar36px": "https://secure.gravatar.com/avatar/41352c3707a4661b14884dd9f5c6e618?s=36&d=mm&r=g",
  },
}
`;

exports[`ApprovalHistory Record When loaded with actual data Should match snapshot 3`] = `
Object {
  "display": "Tom Lei",
  "id": "51D3E0D0A443403C8E854D9D962675A5",
  "srcAvatar36px": "https://secure.gravatar.com/avatar/41352c3707a4661b14884dd9f5c6e618?s=36&d=mm&r=g",
}
`;
