// Jest Snapshot v1, https://goo.gl/fbAQLP

exports[`LineItem Record When a line item with taxes and lists is parsed Should match snapshot 1`] = `
Object {
  "created": "2017-04-24T19:59:26+00:00",
  "description": "Desc 1",
  "id": "666F6C1F6C2C490CB2D424C006B6E62D",
  "lists": Object {
    "007CC8F8F1D847F0A6E50B9839E64DB3": Object {
      "active": true,
      "display": "13004: 01310: Senior Site Superintendent",
      "id": "AAFBFD172EF14D0882DFC6A6C1D81DB0",
      "listId": "007CC8F8F1D847F0A6E50B9839E64DB3",
      "listName": "Project Activity",
      "structure": Object {
        "id": "01310",
        "name": "Senior Site Superintendent",
      },
      "type": "ProjectActivity",
    },
    "1A60647A9A75497DA9A3E12BE4778166": Object {
      "active": true,
      "display": "O: Other",
      "id": "04D88FE6E0F945D888BB5075C708437E",
      "listId": "1A60647A9A75497DA9A3E12BE4778166",
      "listName": "Group",
      "structure": Object {
        "id": "O",
        "name": "Other",
      },
      "type": "Group",
    },
    "FC04B90CBB4F465C81FF697E72861829": Object {
      "active": true,
      "display": "13004: 2070\\\\/2090 Scott St.",
      "id": "237B5A0C1E894FC095B1F02F799C1CF6",
      "listId": "FC04B90CBB4F465C81FF697E72861829",
      "listName": "Project",
      "structure": Object {
        "id": "13004",
        "name": "2070\\\\/2090 Scott St.",
      },
      "type": "Project",
    },
  },
  "orgunit": Object {
    "display": "Granny Smith (Maestro)",
    "id": "34B6B6F461FD4A65A4A09DFB2D0536D1",
  },
  "owner": Object {},
  "quantity": 3,
  "received": 0,
  "sequence": 1,
  "subtotal": 0,
  "taxes": Array [
    Object {
      "amount": 400,
      "id": "3090C19853AC439480AC5BE435066A08",
      "taxListItem": Object {
        "active": undefined,
        "display": "I: HST on Payroll Exp",
        "id": "5AE6E7FE61184BDFBB0F50DB3C937D46",
        "listId": undefined,
        "listName": undefined,
        "structure": Object {
          "id": "I",
          "name": "HST on Payroll Exp",
        },
        "type": "Tax",
      },
    },
    Object {
      "amount": 4500,
      "id": "10AE9F547FE74D9CB224450F4B7511B4",
      "taxListItem": Object {
        "active": undefined,
        "display": "A: HST on Sales",
        "id": "41D9E7E4DC744628BA86157DAD801A07",
        "listId": undefined,
        "listName": undefined,
        "structure": Object {
          "id": "A",
          "name": "HST on Sales",
        },
        "type": "Tax",
      },
    },
  ],
  "tip": 0,
  "total": 4900,
  "type": "LineItem",
  "unitcost": 0,
  "updated": "2017-07-28T21:32:41+00:00",
}
`;

exports[`LineItem Record When a line item with taxes and lists is parsed Should match snapshot 2`] = `
Object {
  "created": "2017-04-24T20:04:46+00:00",
  "description": "",
  "id": "02FF33EBF83043AB915006B73486DAED",
  "lists": Object {},
  "orgunit": Object {
    "display": "Honeycrisp (Sage 100 via new SyncTool)",
    "id": "880A6315026A457CBBEB0AA733D971AE",
  },
  "owner": Object {},
  "quantity": 0,
  "received": 0,
  "sequence": 1,
  "subtotal": 100.1,
  "taxes": Array [],
  "tip": 0,
  "total": 100.1,
  "type": "LineItem",
  "unitcost": 0,
  "updated": "2017-06-14T19:13:07+00:00",
}
`;
